Хочу 20 баллов за это задание

    4  ls
    5  git status
    6  git checkout -b Karavan_hw_01
    7  mkdir hw-01
    8  cd hw-01
    9  nano file_1.txt
   10  nano file_2.txt
   11  nano .gitignore
   12  git add .
   13  git status
   14  git commit -a
   15  git push
   16  git push --set-upstream origin Karavan_hw_01
